<define-tag pagetitle>DLA-962-1 tnef</define-tag>
<define-tag report_date>2017-5-29</define-tag>
<define-tag secrefs>CVE-2017-8911</define-tag>
<define-tag packages>tnef</define-tag>
<define-tag isvulnerable>yes</define-tag>
<define-tag fixed>yes</define-tag>
<define-tag fixed-section>no</define-tag>

#use wml::debian::security

