<define-tag pagetitle>DLA-1025-1 bind9</define-tag>
<define-tag report_date>2017-7-13</define-tag>
<define-tag secrefs>CVE-2017-3142 CVE-2017-3143</define-tag>
<define-tag packages>bind9</define-tag>
<define-tag isvulnerable>yes</define-tag>
<define-tag fixed>yes</define-tag>
<define-tag fixed-section>no</define-tag>

#use wml::debian::security

