<define-tag pagetitle>DLA-1516-1 okular</define-tag>
<define-tag report_date>2018-9-23</define-tag>
<define-tag secrefs>CVE-2018-1000801</define-tag>
<define-tag packages>okular</define-tag>
<define-tag isvulnerable>yes</define-tag>
<define-tag fixed>yes</define-tag>
<define-tag fixed-section>no</define-tag>

#use wml::debian::security

