<define-tag pagetitle>DSA-4541-1 libapreq2</define-tag>
<define-tag report_date>2019-10-04</define-tag>
<define-tag secrefs>CVE-2019-12412 Bug#939937</define-tag>
<define-tag packages>libapreq2</define-tag>
<define-tag isvulnerable>yes</define-tag>
<define-tag fixed>yes</define-tag>
<define-tag fixed-section>no</define-tag>

#use wml::debian::security



</dl>
