<define-tag pagetitle>DSA-4422-1 apache2</define-tag>
<define-tag report_date>2019-4-03</define-tag>
<define-tag secrefs>CVE-2018-17189 CVE-2018-17199 CVE-2019-0196 CVE-2019-0211 CVE-2019-0217 CVE-2019-0220 Bug#920302 Bug#920303</define-tag>
<define-tag packages>apache2</define-tag>
<define-tag isvulnerable>yes</define-tag>
<define-tag fixed>yes</define-tag>
<define-tag fixed-section>no</define-tag>

#use wml::debian::security



</dl>
