<define-tag pagetitle>DSA-4456-1 exim4</define-tag>
<define-tag report_date>2019-6-05</define-tag>
<define-tag secrefs>CVE-2019-10149</define-tag>
<define-tag packages>exim4</define-tag>
<define-tag isvulnerable>yes</define-tag>
<define-tag fixed>yes</define-tag>
<define-tag fixed-section>no</define-tag>

#use wml::debian::security



</dl>
