<define-tag pagetitle>DLA-1758-1 debian-security-support</define-tag>
<define-tag report_date>2019-04-20</define-tag>
<define-tag packages>debian-security-support</define-tag>
<define-tag isvulnerable>yes</define-tag>
<define-tag fixed>yes</define-tag>
<define-tag fixed-section>no</define-tag>

#use wml::debian::security

