<define-tag pagetitle>DLA-643-1 chicken</define-tag>
<define-tag report_date>2016-9-30</define-tag>
<define-tag secrefs>CVE-2016-6830 CVE-2016-6831</define-tag>
<define-tag packages>chicken</define-tag>
<define-tag isvulnerable>yes</define-tag>
<define-tag fixed>yes</define-tag>
<define-tag fixed-section>no</define-tag>

#use wml::debian::security

