<define-tag pagetitle>DLA-456-1 openssl</define-tag>
<define-tag report_date>2016-5-3</define-tag>
<define-tag secrefs>CVE-2016-2105 CVE-2016-2106 CVE-2016-2107 CVE-2016-2108 CVE-2016-2109 CVE-2016-2176</define-tag>
<define-tag packages>openssl</define-tag>
<define-tag isvulnerable>yes</define-tag>
<define-tag fixed>yes</define-tag>
<define-tag fixed-section>no</define-tag>

#use wml::debian::security

