<define-tag pagetitle>DLA-472-1 icedove</define-tag>
<define-tag report_date>2016-5-14</define-tag>
<define-tag secrefs>CVE-2016-1979 CVE-2016-2805 CVE-2016-2807</define-tag>
<define-tag packages>icedove</define-tag>
<define-tag isvulnerable>yes</define-tag>
<define-tag fixed>yes</define-tag>
<define-tag fixed-section>no</define-tag>

#use wml::debian::security

